hps+fpga_marlin/quartus/simulat/simulation/qsim/simulat.msim.vcd
$comment
	File created using the following command:
		vcd file simulat.msim.vcd -direction
$end
$date
	Wed Apr 10 22:19:35 2019
$end
$version
	ModelSim Version 10.5b
$end
$timescale
	1ps
$end

$scope module heater_control_vlg_vec_tst $end
$var reg 1 ! clk $end
$var reg 2 " control [1:0] $end
$var reg 12 # temp [11:0] $end
$var reg 12 $ temp_bottom [11:0] $end
$var reg 12 % temp_upper [11:0] $end
$var wire 1 & enable_heater $end

$scope module i1 $end
$var wire 1 ' gnd $end
$var wire 1 ( vcc $end
$var wire 1 ) unknown $end
$var tri1 1 * devclrn $end
$var tri1 1 + devpor $end
$var tri1 1 , devoe $end
$var wire 1 - enable_heater~output_o $end
$var wire 1 . clk~input_o $end
$var wire 1 / control[0]~input_o $end
$var wire 1 0 temp[4]~input_o $end
$var wire 1 1 temp_upper[4]~input_o $end
$var wire 1 2 temp[7]~input_o $end
$var wire 1 3 temp_upper[7]~input_o $end
$var wire 1 4 temp[6]~input_o $end
$var wire 1 5 temp_upper[6]~input_o $end
$var wire 1 6 temp[5]~input_o $end
$var wire 1 7 temp_upper[5]~input_o $end
$var wire 1 8 LessThan0~0_combout $end
$var wire 1 9 temp[1]~input_o $end
$var wire 1 : temp_upper[1]~input_o $end
$var wire 1 ; temp[0]~input_o $end
$var wire 1 < temp_upper[0]~input_o $end
$var wire 1 = LessThan0~1_combout $end
$var wire 1 > temp[3]~input_o $end
$var wire 1 ? temp_upper[3]~input_o $end
$var wire 1 @ temp[2]~input_o $end
$var wire 1 A temp_upper[2]~input_o $end
$var wire 1 B LessThan0~2_combout $end
$var wire 1 C LessThan0~3_combout $end
$var wire 1 D LessThan0~4_combout $end
$var wire 1 E LessThan0~5_combout $end
$var wire 1 F LessThan0~6_combout $end
$var wire 1 G temp[9]~input_o $end
$var wire 1 H temp_upper[9]~input_o $end
$var wire 1 I temp[11]~input_o $end
$var wire 1 J temp_upper[11]~input_o $end
$var wire 1 K temp[10]~input_o $end
$var wire 1 L temp_upper[10]~input_o $end
$var wire 1 M LessThan0~7_combout $end
$var wire 1 N temp[8]~input_o $end
$var wire 1 O temp_upper[8]~input_o $end
$var wire 1 P LessThan0~8_combout $end
$var wire 1 Q LessThan0~9_combout $end
$var wire 1 R LessThan0~10_combout $end
$var wire 1 S f~0_combout $end
$var wire 1 T f~q $end
$var wire 1 U LessThan0~11_combout $end
$var wire 1 V control[1]~input_o $end
$var wire 1 W temp_bottom[3]~input_o $end
$var wire 1 X temp_bottom[2]~input_o $end
$var wire 1 Y temp_bottom[1]~input_o $end
$var wire 1 Z temp_bottom[0]~input_o $end
$var wire 1 [ LessThan1~0_combout $end
$var wire 1 \ LessThan1~1_combout $end
$var wire 1 ] temp_bottom[5]~input_o $end
$var wire 1 ^ temp_bottom[7]~input_o $end
$var wire 1 _ temp_bottom[6]~input_o $end
$var wire 1 ` LessThan1~2_combout $end
$var wire 1 a temp_bottom[4]~input_o $end
$var wire 1 b LessThan1~3_combout $end
$var wire 1 c LessThan1~4_combout $end
$var wire 1 d LessThan1~5_combout $end
$var wire 1 e temp_bottom[9]~input_o $end
$var wire 1 f temp_bottom[11]~input_o $end
$var wire 1 g temp_bottom[10]~input_o $end
$var wire 1 h LessThan1~6_combout $end
$var wire 1 i temp_bottom[8]~input_o $end
$var wire 1 j LessThan1~7_combout $end
$var wire 1 k en~0_combout $end
$var wire 1 l en~1_combout $end
$var wire 1 m en~2_combout $end
$var wire 1 n en~3_combout $end
$var wire 1 o en~q $end
$upscope $end
$upscope $end
$enddefinitions $end
#0
$dumpvars
0!
b10 "
b101000 #
b11110 $
b1010 %
0&
0'
1(
x)
1*
1+
1,
0-
0.
0/
00
01
02
03
04
05
16
07
08
09
1:
0;
0<
0=
1>
1?
0@
0A
1B
0C
0D
1E
0F
0G
0H
0I
0J
0K
0L
1M
0N
0O
1P
0Q
1R
0S
0T
0U
1V
1W
1X
1Y
0Z
1[
1\
0]
0^
0_
1`
1a
0b
0c
1d
0e
0f
0g
1h
0i
1j
1k
1l
1m
1n
0o
$end
#10000
1!
1.
1o
1-
1&
#20000
0!
0.
#30000
1!
1.
#40000
0!
0.
#50000
1!
1.
#60000
0!
0.
#70000
1!
1.
#80000
b1000 #
b11000 #
b10000 #
b10100 #
0!
1@
0>
10
06
0.
1b
0E
18
0B
0m
#90000
1!
1.
#100000
0!
0.
#110000
1!
1.
#120000
0!
0.
#130000
1!
1.
#140000
0!
0.
#150000
1!
1.
#160000
b100 #
b1100 #
b1000 #
0!
0@
1>
00
0.
0d
0b
1F
1B
1U
0n
#170000
1!
1.
0o
0-
0&
#180000
0!
0.
#190000
1!
1.
#200000
0!
0.
#210000
1!
1.
#220000
0!
0.
#230000
1!
1.
#240000
b1100 #
0!
1@
0.
1C
0B
1D
0U
#250000
1!
1.
#260000
0!
0.
#270000
1!
1.
#280000
0!
0.
#290000
1!
1.
#300000
0!
0.
#310000
1!
1.
#320000
0!
0.
#330000
1!
1.
#340000
0!
0.
#350000
1!
1.
#360000
0!
0.
#370000
1!
1.
#380000
0!
0.
#390000
1!
1.
#400000
b1110 #
b1111 #
b11111 #
b11011 #
0!
1;
19
0@
10
0.
1d
1b
0F
0D
0C
1B
0[
1=
#410000
1!
1.
#420000
0!
0.
#430000
1!
1.
#440000
0!
0.
#450000
1!
1.
#460000
0!
0.
#470000
1!
1.
#480000
b111011 #
b110011 #
b110001 #
b100001 #
0!
09
0>
00
16
0.
0b
1E
08
1F
1D
0B
1[
0=
0D
0F
1m
1n
#490000
1!
1.
1o
1-
1&
#500000
0!
0.
#510000
1!
1.
#520000
0!
0.
#530000
1!
1.
#540000
0!
0.
#550000
1!
1.
#560000
b100000 #
b101000 #
0!
0;
1>
0.
1B
#570000
1!
1.
#580000
0!
0.
#590000
1!
1.
#600000
0!
0.
#610000
1!
1.
#620000
0!
0.
#630000
1!
1.
#640000
b1000 #
b1010 #
b11010 #
0!
19
10
06
0.
1b
0E
18
0[
0m
#650000
1!
1.
#660000
0!
0.
#670000
1!
1.
#680000
0!
0.
#690000
1!
1.
#700000
0!
0.
#710000
1!
1.
#720000
b11110 #
b11111 #
b10111 #
b111 #
0!
1;
1@
0>
00
0.
0d
0b
1F
0B
1=
1U
0n
#730000
1!
1.
0o
0-
0&
#740000
0!
0.
#750000
1!
1.
#760000
0!
0.
#770000
1!
1.
#780000
0!
0.
#790000
1!
1.
#800000
b1111 #
0!
1>
0.
0\
1C
1D
0U
#810000
1!
1.
#820000
0!
0.
#830000
1!
1.
#840000
0!
0.
#850000
1!
1.
#860000
0!
0.
#870000
1!
1.
#880000
b101111 #
b101101 #
b101001 #
b100001 #
0!
09
0@
0>
16
0.
1d
1E
08
1\
0C
1[
0=
0D
1m
0F
1n
#890000
1!
1.
1o
1-
1&
#900000
0!
0.
#910000
1!
1.
#920000
0!
0.
#930000
1!
1.
#940000
0!
0.
#950000
1!
1.
#960000
b100000 #
b100100 #
0!
0;
1@
0.
#970000
1!
1.
#980000
0!
0.
#990000
1!
1.
